{
    "items": [
    
     {
            "type": "dir", 
            "title": "[COLORlime]Any Debrid Service Works In This Section[/COLOR]", 
            "link": "https://"
         },
        {
            "type": "dir",
            "title": "[COLORlime]>>>> Movie Collections <<<<-- Click!![/COLOR]",
            "link": "http://mawashi360.github.io/collections.json"
        },  
        {
            "type": "dir",
            "title": "[COLORyellow]Latest Movies[/COLOR]",
            "link": "tmdb/movie/now_playing"
        },  
		{
            "type": "dir",
            "title": "[COLORyellow]Most Popular[/COLOR]",
            "link": "tmdb/movie/popular"
        },
        {
            "type": "dir",
            "title": "[COLORyellow]Best Picture Winners[/COLOR]",
            "link": "tmdb/list/28"
	    },
        {
            "type": "dir",
            "title": "[COLORyellow]My Top 100 Movies[/COLOR]",
            "link": "tmdb/list/8196200"
	    },
        {
            "type": "dir",
            "title": "[COLORyellow]Top 100 Thrillers[/COLOR]",
            "link": "tmdb/list/43"
	    },
        {
            "type": "dir",
            "title": "[COLORyellow]Top 100 Action Movies[/COLOR]",
            "link": "tmdb/list/8196264"
	    },
        {
            "type": "dir",
            "title": "[COLORyellow]Top 100 Horror Movies[/COLOR]",
            "link": "tmdb/list/8196269"
	    },
        {
            "type": "dir",
            "title": "[COLORyellow]Top 100 British Cinema[/COLOR]",
            "link": "tmdb/list/8196284"
	    },
        {
            "type": "dir",
            "title": "[COLORyellow]Top 100 Comedy Movies[/COLOR]",
            "link": "tmdb/list/8196404"
	    },
        {
            "type": "dir",
            "title": "[COLORyellow]Top 100 Sci-Fi Movies[/COLOR]",
            "link": "tmdb/list/8196435"
	    },
        {
            "type": "dir",
            "title": "[COLORyellow]Top 100 Family Movies[/COLOR]",
            "link": "tmdb/list/8196492"
	    },
        {
            "type": "dir",
            "title": "[COLORyellow]Top 250 Movies[/COLOR]",
            "link": "tmdb/list/634"
	    },
        {
            "type": "dir",
            "title": "[COLORyellow]The Marvel Universe[/COLOR]",
            "link": "tmdb/list/1"
	    },
        {
            "type": "dir",
            "title": "[COLORyellow]DC Comics Universe[/COLOR]",
            "link": "tmdb/list/3"
	    },
        {
            "type": "dir",
            "title": "[COLORyellow]The Avengers[/COLOR]",
            "link": "tmdb/list/5"
	    },
        {
            "type": "dir",
            "title": "[COLORyellow]Star Trek Universe[/COLOR]",
            "link": "tmdb/list/32"
	    },
        {
            "type": "dir",
            "title": "[COLORyellow]Alien Expanded Universe[/COLOR]",
            "link": "tmdb/list/33"
	    },
        {
            "type": "dir",
            "title": "[COLORyellow]Middle Earth Universe[/COLOR]",
            "link": "tmdb/list/34"
	    },
        {
            "type": "dir",
            "title": "[COLORyellow]Star Wars Universe[/COLOR]",
            "link": "tmdb/list/8196262"
	    },
        {
            "type": "dir",
            "title": "[COLORyellow]James Bond Collection[/COLOR]",
            "link": "tmdb/list/8196393"
	    },
        {
            "type": "dir",
            "title": "[COLORyellow]Disney Collection[/COLOR]",
            "link": "tmdb/list/338"
	    }
                   

	]

}	
