{
	"items": [
		{
			"type": "dir",
			"title": "[COLORred]Free Content[/COLOR]",
			"link": "https://bitbucket.org/Mad-Eric/textfiles/raw/master/homefree.json"
		},
		{
			"type": "dir",
			"title": "[COLORyellow]Debrid Content[/COLOR]",
			"link": "https://bitbucket.org/Mad-Eric/textfiles/raw/master/homedebrid.json"
		}
		
	]
	
}