   {
    "items": [     
		
		
		{
            "type": "dir", 
            "title": "[COLORyellow]New Movies Free[/COLOR]", 
            "link": "https://bitbucket.org/Mad-Eric/textfiles/raw/master/newrels.json" 
        },
        {
            "type": "dir", 
            "title": "[COLORyellow]New Movies Debrid [COLORlime](RD/AD/Prem)[/COLOR]", 
            "link": "tmdb/list/8214945" 
        },
        {
            "type": "dir", 
            "title": "[COLORyellow]Older Movies 2021/22[/COLOR]", 
            "link": "https://bitbucket.org/Mad-Eric/textfiles/raw/master/nr2.xml" 
        }
       
       
       
	]
	
}