{
    "items": [
       
        { 	
        
         "title": "Eastenders, Corrie, Emmerdale*", 
            "type": "plugin", 
            "link": "plugin://plugin.video.dailymotion_com/?mode=sortVideos1&url=owner:HdOneTv"
        },
		{ 	
        
         "title": "Eastenders, Corrie, Hollyoaks", 
            "type": "plugin", 
            "link": "plugin.video.dailymotion_com/?mode=sortVideos1&url=user:TvSoap"
          },
          { 	
        
         "title": "Eastenders, Corrie, Hollyoaks", 
            "type": "plugin", 
            "link": "plugin.video.dailymotion_com/?mode=sortVideos1&url=user:Soap4K" 
          }
         
          
	]
}	