        {
    "items": [  
          
          {
            "type": "item",
            "title": "In from the Side (2022) [COLORblue]Drama/Sport[/COLOR]",
            "link": [
            "https://racaty.io/i9bhs9ycknsq([COLORlime]FHD[/COLOR])",
            "https://streamtape.com/v/6pR3OXGwgzt9BlZ/([COLORlime]FHD[/COLOR])"
            ],
            "thumbnail": "https://i.imgur.com/iGP9Bvy.jpg",
            "imdb": "tt7947604"
        },
        {
            "type": "item",
            "title": "Resurrection (2022) [COLORblue]Crime/Drama/Horror/Mystery/Thriller[/COLOR]",
            "link": [
            "https://racaty.io/fqsziwlej8e9([COLORlime]FHD[/COLOR])",
            "https://streamtape.com/v/bkvVPbB77ruP0bj/([COLORlime]FHD[/COLOR])"
            ],
            "thumbnail": "https://i.imgur.com/WICyvNF.jpg",
            "imdb": "tt11540726"
        },
        {
            "type": "item",
            "title": "Snow Day (2022) [COLORblue]Comedy/Musical[/COLOR]",
            "link": [
            "https://racaty.io/kht7qvb6bu6v([COLORlime]FHD[/COLOR])",
            "https://streamtape.com/v/aZXQzZ8888hx6zO/([COLORlime]FHD[/COLOR])"
            ],
            "thumbnail": "https://i.imgur.com/uyjloeK.jpg",
            "imdb": "tt23622516"
        },
        {
            "type": "item",
            "title": "The Apology (2022) [COLORblue]Thriller[/COLOR]",
            "link": [
            "https://racaty.io/nhp77v04mtx9([COLORlime]FHD[/COLOR])",
            "https://streamtape.com/v/OYYBjJxZM4cZyy2/([COLORlime]FHD[/COLOR])",
            "https://clicknupload.club/nlhwolv4gyqy([COLORlime]FHD[/COLOR])"
            ],
            "thumbnail": "https://i.imgur.com/OVxN8Rt.jpg",
            "imdb": "tt22494914"
        },
        {
            "type": "item",
            "title": "Hellblazers (2022) [COLORblue]Action/Horror[/COLOR]",
            "link": [
            "https://racaty.io/z4b9glka4deb([COLORlime]FHD[/COLOR])",
            "https://streamtape.com/v/vWY9dBapRPcP9j/([COLORlime]FHD[/COLOR])",
            "https://clicknupload.club/9nosd4crx4h7([COLORlime]FHD[/COLOR])"
            ],
            "thumbnail": "https://i.imgur.com/3W5Q2q4.jpg",
            "imdb": "tt11525390"
        }
        
    ]
    
}