{
    "items": [  
    {
            "type": "dir",
            "title": "[COLORyellow]New Tv Shows[/COLOR]",
            "link": "tmdb/list/8200954" 
       },
       {
            "type": "dir",
            "title": "After Life",
            "link": "tmdb/tvshow/79410",
            "thumbnail": "https://www.themoviedb.org/t/p/w600_and_h900_bestv2/6eJf4h9XcvqK64vbx27EFlLVURm.jpg"
        },
        {
            "type": "dir",
            "title": "American Dad!",
            "link": "tmdb/tvshow/1433",
            "thumbnail": "https://www.themoviedb.org/t/p/w600_and_h900_bestv2/b2XLAyJKLnZWClMmzNieoa33Sf6.jpg"
        },
        {
            "type": "dir",
            "title": "Better Call Saul",
            "link": "tmdb/tvshow/60059",
            "thumbnail": "https://www.themoviedb.org/t/p/w600_and_h900_bestv2/fC2HDm5t0kHl7mTm7jxMR31b7by.jpg"
        },
        {
            "type": "dir",
            "title": "Bob's Burgers",
            "link": "tmdb/tvshow/32726",
            "thumbnail": "https://www.themoviedb.org/t/p/w600_and_h900_bestv2/qNsmGUUwdyHmkvxT1vCKMi8bBtF.jpg"
        },
        {
            "type": "dir",
            "title": "Breaking Bad",
            "link": "tmdb/tvshow/1396",
            "thumbnail": "https://www.themoviedb.org/t/p/w600_and_h900_bestv2/ggFHVNu6YYI5L9pCfOacjizRGt.jpg"
        },
        {
            "type": "dir",
            "title": "Cobra Kai",
            "link": "tmdb/tvshow/77169",
            "thumbnail": "https://www.themoviedb.org/t/p/w600_and_h900_bestv2/6POBWybSBDBKjSs1VAQcnQC1qyt.jpg"
        },
        {
            "type": "dir",
            "title": "Derry Girls",
            "link": "tmdb/tvshow/76148",
            "thumbnail": "https://www.themoviedb.org/t/p/w600_and_h900_bestv2/itBpxZib594NbwqTU2lm4rO8tIY.jpg"
        },
        {
            "type": "dir",
            "title": "F is for Family",
            "link": "tmdb/tvshow/63522",
            "thumbnail": "https://www.themoviedb.org/t/p/w600_and_h900_bestv2/3gkdyR58Hm0gMkItqvyNz7zSTWH.jpg"
        },
        {
            "type": "dir",
            "title": "Family Guy",
            "link": "tmdb/tvshow/1434",
            "thumbnail": "https://www.themoviedb.org/t/p/w600_and_h900_bestv2/9RBeCo8QSaoJLmmuzlwzVH3Hi12.jpg"
        },
        {
            "type": "dir",
            "title": "Fear the Walking Dead",
            "link": "tmdb/tvshow/62286",
            "thumbnail": "https://www.themoviedb.org/t/p/w600_and_h900_bestv2/zyshFjmlDXSzfns2Qk81cfIFfPP.jpg"
        },
        {
            "type": "dir",
            "title": "Game Of Thrones",
            "link": "tmdb/tvshow/1399",
            "thumbnail": "https://www.themoviedb.org/t/p/w600_and_h900_bestv2/u3bZgnGQ9T01sWNhyveQz0wH0Hl.jpg"
        },
        {
            "type": "dir",
            "title": "Halo",
            "link": "tmdb/tvshow/52814",
            "thumbnail": "https://www.themoviedb.org/t/p/w600_and_h900_bestv2/nJUHX3XL1jMkk8honUZnUmudFb9.jpg"
        },
        {
            "type": "dir",
            "title": "Lucifer",
            "link": "tmdb/tvshow/63174",
            "thumbnail": "https://www.themoviedb.org/t/p/w600_and_h900_bestv2/ekZobS8isE6mA53RAiGDG93hBxL.jpg"
        },
        {
            "type": "dir",
            "title": "Mayans M.C.",
            "link": "tmdb/tvshow/76231",
            "thumbnail": "https://www.themoviedb.org/t/p/w600_and_h900_bestv2/pneaBHGQ5BqGJ3afxlPezL5czZB.jpg"
        },
        {
            "type": "dir",
            "title": "Moon Knight",
            "link": "tmdb/tvshow/92749",
            "thumbnail": "https://www.themoviedb.org/t/p/w600_and_h900_bestv2/x6FsYvt33846IQnDSFxla9j0RX8.jpg"
        },
        {
            "type": "dir",
            "title": "Ozark",
            "link": "tmdb/tvshow/69740",
            "thumbnail": "https://www.themoviedb.org/t/p/w600_and_h900_bestv2/m73bD8VjibSKuTWg597GQVyVhSb.jpg"
        },
        {
            "type": "dir",
            "title": "Peaky Blinders",
            "link": "tmdb/tvshow/60574",
            "thumbnail": "https://www.themoviedb.org/t/p/w600_and_h900_bestv2/vUUqzWa2LnHIVqkaKVlVGkVcZIW.jpg"
        },
        {
            "type": "dir",
            "title": "Rick and Morty",
            "link": "tmdb/tvshow/60625",
            "thumbnail": "https://www.themoviedb.org/t/p/w600_and_h900_bestv2/sGVCWtLG37mLOhl11qQVrjKsDzx.jpg"
        },
        {
            "type": "dir",
            "title": "Riverdale",
            "link": "tmdb/tvshow/69050",
            "thumbnail": "https://www.themoviedb.org/t/p/w600_and_h900_bestv2/kzZUa05wZOEiC2UVuJA2T8VrETU.jpg"
        },
        {
            "type": "dir",
            "title": "Slow Horses",
            "link": "tmdb/tvshow/95480",
            "thumbnail": "https://www.themoviedb.org/t/p/w600_and_h900_bestv2/oBqlO6ZjTcVFiE0lBj89lAOi18s.jpg"
        },
        {
            "type": "dir",
            "title": "Snowpiercer",
            "link": "tmdb/tvshow/79680",
            "thumbnail": "https://www.themoviedb.org/t/p/w600_and_h900_bestv2/3s6ZyZKurx6wDJZMXSsbUsgjWCI.jpg"
        },
        {
            "type": "dir",
            "title": "Sons of Anarchy",
            "link": "tmdb/tvshow/1409",
            "thumbnail": "https://www.themoviedb.org/t/p/w600_and_h900_bestv2/ujpOMxs5mjRrhgTgOgZj9fqEsgY.jpg"
        },
        {
            "type": "dir",
            "title": "South Park",
            "link": "tmdb/tvshow/2190",
            "thumbnail": "https://www.themoviedb.org/t/p/w600_and_h900_bestv2/iiCY2QIGSnmtVkIdjkKAfwDs0KF.jpg"
        },
        {
            "type": "dir",
            "title": "Superman & Lois",
            "link": "tmdb/tvshow/95057",
            "thumbnail": "https://www.themoviedb.org/t/p/w600_and_h900_bestv2/utpXq61UIlfNUuviz2hRmCEYdYr.jpg"
        },
        {
            "type": "dir",
            "title": "S.W.A.T.",
            "link": "tmdb/tvshow/71790",
            "thumbnail": "https://www.themoviedb.org/t/p/w600_and_h900_bestv2/7Bttz4hEspKlpU0Me57dkHNR3nf.jpg"
        },
        {
            "type": "dir",
            "title": "The Baby",
            "link": "tmdb/tvshow/115915",
            "thumbnail": "https://www.themoviedb.org/t/p/w600_and_h900_bestv2/v2anAQ1kffNRQoClWhGT81sXqFu.jpg"
        },
        {
            "type": "dir",
            "title": "The Big Bang Theory",
            "link": "tmdb/tvshow/1418",
            "thumbnail": "https://www.themoviedb.org/t/p/w600_and_h900_bestv2/ooBGRQBdbGzBxAVfExiO8r7kloA.jpg"
        },
        {
            "type": "dir",
            "title": "The Blacklist",
            "link": "tmdb/tvshow/46952",
            "thumbnail": "https://www.themoviedb.org/t/p/w600_and_h900_bestv2/htJzeRcYI2ewMm4PTrg98UMXShe.jpg"
        },
        {
            "type": "dir",
            "title": "The Book of Boba Fett",
            "link": "tmdb/tvshow/115036",
            "thumbnail": "https://www.themoviedb.org/t/p/w600_and_h900_bestv2/gNbdjDi1HamTCrfvM9JeA94bNi2.jpg"
        }, 
        {
            "type": "dir",
            "title": "The Flight Attendant",
            "link": "tmdb/tvshow/93287",
            "thumbnail": "https://www.themoviedb.org/t/p/w600_and_h900_bestv2/Aw8sdpX1cvouqQz8SnxC76etn4K.jpg"
        },
        {
            "type": "dir",
            "title": "The Flash",
            "link": "tmdb/tvshow/60735",
            "thumbnail": "https://www.themoviedb.org/t/p/w600_and_h900_bestv2/lJA2RCMfsWoskqlQhXPSLFQGXEJ.jpg"
        },
        {
            "type": "dir",
            "title": "The Offer",
            "link": "tmdb/tvshow/114068",
            "thumbnail": "https://www.themoviedb.org/t/p/w600_and_h900_bestv2/9fdYX5uc3HZEuYotms3XJ72AbCr.jpg"
        },
        {
            "type": "dir",
            "title": "The Rookie",
            "link": "tmdb/tvshow/79744",
            "thumbnail": "https://www.themoviedb.org/t/p/w600_and_h900_bestv2/gSGj4zhuFllpZEkHGdsBMV2BGsq.jpg"
        },
        {
            "type": "dir",
            "title": "The Simpsons",
            "link": "tmdb/tvshow/456",
            "thumbnail": "https://www.themoviedb.org/t/p/w600_and_h900_bestv2/tubgEpjTUA7t0kejVMBsNBZDarZ.jpg"
        },
        {
            "type": "dir",
            "title": "The Sopranos",
            "link": "tmdb/tvshow/1398",
            "thumbnail": "https://www.themoviedb.org/t/p/w600_and_h900_bestv2/57okJJUBK0AaijxLh3RjNUaMvFI.jpg"
        },
		{
            "type": "dir",
            "title": "The Walking Dead",
            "link": "tmdb/tvshow/1402",
            "thumbnail": "https://www.themoviedb.org/t/p/w600_and_h900_bestv2/xf9wuDcqlUPWABZNeDKPbZUjWx0.jpg"
        },
        {
            "type": "dir",
            "title": "Vikings: Valhalla",
            "link": "tmdb/tvshow/116135",
            "thumbnail": "https://www.themoviedb.org/t/p/w600_and_h900_bestv2/izIMqapegdEZj0YVDyFATPR8adh.jpg"
        },
        {
            "type": "dir",
            "title": "Young Sheldon",
            "link": "tmdb/tvshow/71728",
            "thumbnail": "https://www.themoviedb.org/t/p/w600_and_h900_bestv2/5Gf83qYgLY8Qivn7jpv5nxxZPu6.jpg"
        }
	    
        
		
	]
	
}
		